<?xml version="1.0" encoding="utf-8"?>
<!-- Generator: Adobe Illustrator 19.0.0, SVG Export Plug-In . SVG Version: 6.00 Build 0)  -->
<svg version="1.1" baseProfile="tiny" id="Layer_1" xmlns="http://www.w3.org/2000/svg" xmlns:xlink="http://www.w3.org/1999/xlink"
	 x="0px" y="0px" viewBox="-11 13 24 24" xml:space="preserve">
<g id="BG_x5F_Fill_x5F_Light_1_" display="none">
	<path display="inline" fill="#BABABA" d="M2.8,48.8c0,1.2-0.9,2.1-2.1,2.1h-21.4c-1.2,0-2.1-0.9-2.1-2.1V27.3
		c0-1.2,0.9-2.1,2.1-2.1H0.7c1.2,0,2.1,0.9,2.1,2.1L2.8,48.8L2.8,48.8z"/>
</g>
<g id="BG_x5F_Fill_x5F_Dark" display="none">
	<path display="inline" fill="#484848" d="M2.8,48.8c0,1.2-0.9,2.1-2.1,2.1h-21.4c-1.2,0-2.1-0.9-2.1-2.1V27.3
		c0-1.2,0.9-2.1,2.1-2.1H0.7c1.2,0,2.1,0.9,2.1,2.1L2.8,48.8L2.8,48.8z"/>
</g>
<g id="link_x5F_chain">
</g>
<g id="linecolor_x5F_object">
</g>
<g id="fill_x5F_object">
</g>
<g id="eye_x5F_yellow_x5F_select">
</g>
<g id="zoomout">
</g>
<g id="zoomin">
</g>
<g id="zoomarea">
</g>
<g id="lightning">
</g>
<g id="play_x5F_sound">
</g>
<g id="gls_x5F_ellipse">
</g>
<g id="perspective">
</g>
<g id="zy">
</g>
<g id="xz">
</g>
<g id="xy">
</g>
<g id="eye_x5F_select">
</g>
<g id="eye_x5F_off">
</g>
<g id="eye">
</g>
<g id="unlock">
</g>
<g id="lock">
</g>
<g id="key_x5F_private">
</g>
<g id="key_x5F_protected">
</g>
<g id="key_x5F_public">
</g>
<g id="generate_x5F_current_x5F_children">
</g>
<g id="generate_x5F_all">
</g>
<g id="generate_x5F_current">
</g>
<g id="create_x5F_mesh">
</g>
<g id="reshape">
</g>
<g id="rot_x5F_right">
</g>
<g id="rot_x5F_left">
</g>
<g id="texturemode">
</g>
<g id="tesselate">
</g>
<g id="stretch_x5F_tall">
</g>
<g id="stretch_x5F_wide">
</g>
<g id="stretch_x5F_short">
</g>
<g id="stretch_x5F_narrow">
</g>
<g id="scribble">
</g>
<g id="freehand">
</g>
<g id="ungroup">
</g>
<g id="group">
</g>
<g id="rotate">
</g>
<g id="polygon">
</g>
<g id="points">
</g>
<g id="redo">
</g>
<g id="undo">
</g>
<g id="union">
</g>
<g id="intersect">
</g>
<g id="paste">
</g>
<g id="grid">
</g>
<g id="quad">
</g>
<g id="polygonoutline">
</g>
<g id="polygonnooutline">
</g>
<g id="outline">
</g>
<g id="make_x5F_component">
</g>
<g id="logsm">
</g>
<g id="line_x5F_color">
</g>
<g id="line">
</g>
<g id="free_x5F_rot">
</g>
<g id="flip_x5F_vert">
</g>
<g id="flip_x5F_horiz">
</g>
<g id="fill">
</g>
<g id="docinfo">
</g>
<g id="difference">
</g>
<g id="delete">
</g>
<g id="cylinder">
</g>
<g id="sphere">
</g>
<g id="dcs">
</g>
<g id="cut">
</g>
<g id="copy">
</g>
<g id="pickup">
</g>
<g id="apply">
</g>
<g id="add_x5F_component">
</g>
<g id="line_x5F_thickness">
</g>
<g id="extrude">
</g>
<g id="eyepoint">
</g>
<g id="hand">
</g>
<g id="left_x5F_ptr">
</g>
<g id="zoom">
</g>
<g id="fileOpen">
</g>
<g id="filenew">
</g>
<g id="filesave">
</g>
<g id="filesaveall">
</g>
<g id="fileprint">
</g>
<g id="bulb">
</g>
<g id="clean_x5F_all">
</g>
<g id="clean_x5F_childern">
</g>
<g id="colwindow">
</g>
<g id="align_x5F_bottom">
</g>
<g id="align_x5F_top">
</g>
<g id="align_x5F_centers">
</g>
<g id="align_x5F_left">
</g>
<g id="align_x5F_right">
</g>
<g id="align_x5F_middles">
</g>
<g id="align_x5F_rotation">
</g>
<g id="downone">
</g>
<g id="upone">
</g>
<g id="send_x5F_to_x5F_bottom">
</g>
<g id="bring_x5F_to_x5F_top">
</g>
<g id="attribute_x5F_collapse">
</g>
<g id="attribute_x5F_expand">
</g>
<g>
	<circle fill="#80A7CA" cx="1.1" cy="21.7" r="8.5"/>
	<path fill="#5F809F" d="M1.1,13.7c4.4,0,8,3.6,8,8s-3.6,8-8,8s-8-3.6-8-8S-3.3,13.7,1.1,13.7 M1.1,13.2c-4.7,0-8.5,3.8-8.5,8.5
		c0,4.7,3.8,8.5,8.5,8.5s8.5-3.8,8.5-8.5C9.6,17,5.8,13.2,1.1,13.2L1.1,13.2z"/>
</g>
<g>
	<path fill="#80A7CA" d="M9.2,36.9H-7.4c-1.8,0-3.3-1.5-3.3-3.3l0-4.4c0-0.8,0.5-1.6,1.3-1.9C-8.2,27-7,27.9-7,29.2v2.9
		c0,0.6,0.5,1.1,1.1,1.1H7.4c0.6,0,1.3-0.5,1.3-1.1l0-2.9c0-0.8,0.5-1.6,1.3-1.9c1.3-0.4,2.5,0.5,2.5,1.8v4.5
		C12.5,35.5,11.1,36.9,9.2,36.9z"/>
	<path fill="#5F809F" d="M10.7,27.8L10.7,27.8c0.8,0,1.4,0.6,1.4,1.4v4.5c0,1.5-1.2,2.8-2.8,2.8H-7.4c-1.5,0-2.8-1.2-2.8-2.8v-4.4
		c0-0.6,0.4-1.2,0.9-1.4c0.2,0,0.3-0.1,0.5-0.1c0.8,0,1.4,0.6,1.4,1.4v2.9c0,0.9,0.7,1.6,1.6,1.6H7.4c0.8,0,1.8-0.7,1.8-1.6l0-2.9
		c0-0.6,0.4-1.2,0.9-1.4C10.3,27.8,10.5,27.8,10.7,27.8 M10.7,27.3c-0.2,0-0.4,0-0.6,0.1c-0.8,0.2-1.3,1-1.3,1.9l0,2.9
		c0,0.6-0.7,1.1-1.3,1.1H-5.9c-0.6,0-1.1-0.5-1.1-1.1v-2.9c0-1-0.8-1.9-1.9-1.9c-0.2,0-0.4,0-0.6,0.1c-0.8,0.2-1.3,1-1.3,1.9v4.4
		c0,1.8,1.5,3.3,3.3,3.3H9.2c1.8,0,3.3-1.5,3.3-3.3v-4.5C12.5,28.1,11.7,27.3,10.7,27.3L10.7,27.3z"/>
</g>
<polygon fill="#E4E4E4" points="6,25.1 2.8,21.8 6,18.6 4.4,17 1.2,20.2 -2.1,17 -3.7,18.6 -0.4,21.8 -3.7,25.1 -2.1,26.7 1.2,23.5 
	4.4,26.7 "/>
</svg>
