<?xml version="1.0" encoding="utf-8"?>
<!-- Generator: Adobe Illustrator 19.0.0, SVG Export Plug-In . SVG Version: 6.00 Build 0)  -->
<svg version="1.1" id="Layer_1" xmlns="http://www.w3.org/2000/svg" xmlns:xlink="http://www.w3.org/1999/xlink" x="0px" y="0px"
	 viewBox="0 0 24 24" style="enable-background:new 0 0 24 24;" xml:space="preserve">
<style type="text/css">
	.st0{fill:#FFFFFF;stroke:#4A4A4B;stroke-width:0.7114;}
	.st1{fill:#004E95;}
</style>
<path class="st0" d="M5.9,20.3l-5.1-8.8c-0.2-0.4-0.2-0.8,0-1.2l5.1-8.8C6.2,1.2,6.5,1,7,1h10.3c0.4,0,0.8,0.2,1,0.6l5.1,8.8
	c0.2,0.4,0.2,0.8,0,1.2l-5.1,8.8c-0.2,0.4-0.6,0.6-1,0.6H7C6.5,20.9,6.2,20.7,5.9,20.3z"/>
<g>
	<path class="st1" d="M5.8,16.8c0.3-0.4,0.5-1,0.5-1.7V6.9c0-0.7-0.2-1.3-0.5-1.7h9.7c0.5,0,0.9,0.1,1.3,0.3c0.4,0.2,0.8,0.4,1,0.7
		c0.4,0.5,0.7,1.3,0.7,2.4v5c0,1.1-0.2,1.9-0.7,2.4c-0.3,0.3-0.6,0.5-1,0.7c-0.4,0.2-0.9,0.3-1.3,0.3H5.8z M10.7,14.9h2.1
		c0.5,0,0.8-0.1,0.9-0.3c0.1-0.2,0.2-0.5,0.2-1.1V8.4c0-0.5,0-0.8-0.1-1c-0.2-0.2-0.5-0.4-1-0.3h-2.1L10.7,14.9L10.7,14.9z"/>
</g>
</svg>
